https://www.mdpi.com/1999-4893/16/11/496
https://www.mdpi.com/1999-4893/16/11/495
https://www.mdpi.com/1999-4893/16/10/494
https://www.mdpi.com/1999-4893/16/10/493
https://www.mdpi.com/1999-4893/16/10/492
https://www.mdpi.com/1999-4893/16/10/491
https://www.mdpi.com/1999-4893/16/10/490
https://www.mdpi.com/1999-4893/16/10/489
https://www.mdpi.com/1999-4893/16/10/488
https://www.mdpi.com/1999-4893/16/10/487
https://www.mdpi.com/1999-4893/16/10/486
https://www.mdpi.com/1999-4893/16/10/485
https://www.mdpi.com/1999-4893/16/10/484
https://www.mdpi.com/1999-4893/16/10/483
https://www.mdpi.com/1999-4893/16/10/482
https://www.mdpi.com/1999-4893/16/10/481
https://www.mdpi.com/1999-4893/16/10/480
https://www.mdpi.com/1999-4893/16/10/479
https://www.mdpi.com/1999-4893/16/10/478
